results1,results2,results3,results4,results5,results6,results7
measure,channel group,dataType,type,baseline avg,test avg,"channels"
avWT,Frontal,10HzClicks,MK-CNQX,4.66520119826457,3.69427089007745,"mean(Fl, Fp, Ml, Mp)"
avWT,Frontal,10HzClicks,MK-CNQX,5.04666917621653,3.19505095145672,"mean(Fl, Fp, Ml, Mp)"
avWT,Frontal,10HzClicks,MK-CNQX,2.7576458474311,2.95901839592794,"mean(Fl, Fp, Ml, Mp)"
avWT,Frontal,10HzClicks,MK-CNQX,2.58752546605227,5.22135217710631,"mean(Fl, Fp, Ml, Mp)"
avWT,Frontal,10HzClicks,MK-CNQX,2.14723592834878,4.75807495799911,"mean(Fl, Fp, Ml, Mp)"
avWT,Frontal,10HzClicks,MK-CNQX,4.31501876757778,1.74042312106271,"mean(Fl, Fp, Ml, Mp)"
avWT,Frontal,10HzClicks,MK-CNQX,7.34979524088289,16.9825427282736,"mean(Fl, Fp, Ml, Mp)"
avWT,Frontal,10HzClicks,MK-CNQX,1.39563325160828,3.60627884303608,"mean(Fl, Fp, Ml, Mp)"
avWT,Frontal,10HzClicks,MK-CNQX,6.79702040074582,4.16986546199293,"mean(Fl, Fp, Ml, Mp)"
avWT,Frontal,10HzClicks,MK-CNQX,2.21311999198504,2.60912676233679,"mean(Fl, Fp, Ml, Mp)"
avWT,Auditory,10HzClicks,MK-CNQX,1.22578166392163,3.71674846771767,"mean(Al, Ap)"
avWT,Auditory,10HzClicks,MK-CNQX,12.3909536564908,39.1574050334178,"mean(Al, Ap)"
avWT,Auditory,10HzClicks,MK-CNQX,21.7804826065092,21.7939068465618,"mean(Al, Ap)"
avWT,Auditory,10HzClicks,MK-CNQX,53.1716317889612,46.1782102817067,"mean(Al, Ap)"
avWT,Auditory,10HzClicks,MK-CNQX,2.82409066772452,18.47569393147,"mean(Al, Ap)"
avWT,Auditory,10HzClicks,MK-CNQX,4.11398315454428,18.6083506494264,"mean(Al, Ap)"
avWT,Auditory,10HzClicks,MK-CNQX,8.08795831958298,68.3193644659253,"mean(Al, Ap)"
avWT,Auditory,10HzClicks,MK-CNQX,2.39492522698423,15.5480057118955,"mean(Al, Ap)"
avWT,Auditory,10HzClicks,MK-CNQX,3.9402621788131,13.4553163573092,"mean(Al, Ap)"
avWT,Auditory,10HzClicks,MK-CNQX,9.32582908775048,26.4375106333456,"mean(Al, Ap)"
avWT,Parietal,10HzClicks,MK-CNQX,4.3687845153272,2.82337681430757,"mean(P1l, P1p, P2l, P2p)"
avWT,Parietal,10HzClicks,MK-CNQX,2.67376159473072,2.06287101115074,"mean(P1l, P1p, P2l, P2p)"
avWT,Parietal,10HzClicks,MK-CNQX,1.5909179221864,5.26613641845807,"mean(P1l, P1p, P2l, P2p)"
avWT,Parietal,10HzClicks,MK-CNQX,4.04609778127806,2.70336921746174,"mean(P1l, P1p, P2l, P2p)"
avWT,Parietal,10HzClicks,MK-CNQX,1.19576893958805,4.10642481009051,"mean(P1l, P1p, P2l, P2p)"
avWT,Parietal,10HzClicks,MK-CNQX,0.911711609501461,1.99264054075384,"mean(P1l, P1p, P2l, P2p)"
avWT,Parietal,10HzClicks,MK-CNQX,3.10989291847329,6.78258324389285,"mean(P1l, P1p, P2l, P2p)"
avWT,Parietal,10HzClicks,MK-CNQX,1.68368516609273,3.41232561177048,"mean(P1l, P1p, P2l, P2p)"
avWT,Parietal,10HzClicks,MK-CNQX,4.16008761229983,4.08939762831511,"mean(P1l, P1p, P2l, P2p)"
avWT,Parietal,10HzClicks,MK-CNQX,1.02136327625354,1.88032100406835,"mean(P1l, P1p, P2l, P2p)"
avWT,Temporal,10HzClicks,MK-CNQX,8.21943901990046,2.37957434886156,"mean(Tl, Tp)"
avWT,Temporal,10HzClicks,MK-CNQX,4.05826746708205,1.52604493442187,"mean(Tl, Tp)"
avWT,Temporal,10HzClicks,MK-CNQX,4.01435959341925,5.28896788727234,"mean(Tl, Tp)"
avWT,Temporal,10HzClicks,MK-CNQX,1.45439065760852,0.84438790119454,"mean(Tl, Tp)"
avWT,Temporal,10HzClicks,MK-CNQX,14.0659672268487,4.1298488536463,"mean(Tl, Tp)"
avWT,Temporal,10HzClicks,MK-CNQX,1.3098931790761,0.992530442183315,"mean(Tl, Tp)"
avWT,Temporal,10HzClicks,MK-CNQX,1.58858207820392,2.58725232249461,"mean(Tl, Tp)"
avWT,Temporal,10HzClicks,MK-CNQX,2.28855768839494,2.55559822497126,"mean(Tl, Tp)"
avWT,Temporal,10HzClicks,MK-CNQX,6.49289124855028,2.08860041968335,"mean(Tl, Tp)"
avWT,Temporal,10HzClicks,MK-CNQX,1.05286102844658,3.54812009242738,"mean(Tl, Tp)"
